…
``` r
group_keyword_avg_likes_views <- video_stats %>%
    group_by(Keyword) %>%
    summarise(
        avg_likes_in_K = mean(Likes, na.rm = FALSE) / 1000,
        avg_views_in_K = mean(Views, na.rm = FALSE) / 1000, count = n()
    )
print(
    arrange(group_keyword_avg_likes_views, desc(avg_likes_in_K)),
    n = 25
)
```

    ## # A tibble: 41 × 4
    ##    Keyword       avg_likes_in_K avg_views_in_K count
    ##    <chr>                  <dbl>          <dbl> <int>
    ##  1 mrbeast               2106.          66764.    50
    ##  2 animals                761.          94724.    38
    ##  3 bed                    474.          53893.    44
    ##  4 google                 471.         103365.    45
    ##  5 music                  314.          29365.    46
    ##  6 cubes                  303.          15039.    50
    ##  7 history                273.          15047.    50
    ##  8 marvel                 210.           6614.    50
    ##  9 tutorial               168.           6761.    50
    ## 10 how-to                 159.           7809.    48
    ## 11 mukbang                141.          10905.    45
    ## 12 apple                  118.          10747.    42
    ## 13 physics                 98.7          3692.    50
    ## 14 food                    95.0          5252.    48
    ## 15 mathchemistry           93.8          3328.    15
    ## 16 sports                  90.5          8601.    49
    ## 17 reaction                74.0           623.    50
    ## 18 lofi                    73.4          3990.    41
    ## 19 interview               73.3          2966.    50
    ## 20 business                72.0          7236.    48
    ## 21 biology                 66.5          4122.    47
    ## 22 education               62.3          2684.    24
    ## 23 trolling                61.4          1420.    50
    ## 24 minecraft               61.2          1813.    50
    ## 25 tech                    60.5          1919.    48
    ## # … with 16 more rows
…
    ## `summarise()` has grouped output by 'Keyword'. You can override using the
    ## `.groups` argument.

``` r
print(
    arrange(group_keyword_avg_likes_views_year, desc(avg_likes)),
    n = 25
)
```

    ## # A tibble: 221 × 5
    ## # Groups:   Keyword [41]
    ##    Keyword PubYear avg_likes   avg_views count
    ##    <chr>   <fct>       <dbl>       <dbl> <int>
    ##  1 animals 2013    11025176  1582262997      1
    ##  2 mrbeast 2021     5712064.  155041850.     6
    ##  3 google  2018     5501680. 1351287503.     3
    ##  4 history 2017     5471653   147339243      1
    ##  5 history 2016     5400589   434352213      1
    ##  6 apple   2016     4144389   425478119      1
    ##  7 mrbeast 2020     4013403   129851855.     4
    ##  8 animals 2014     3381630   510054522      2
    ##  9 bed     2020     2469151.  170552912      4
    ## 10 cubes   2009     2307773   168546247      1
    ## 11 mrbeast 2019     2003151    90017911.    12
    ## 12 music   2021     1824084.  243465852.     4
    ## 13 lofi    2019     1638369    84747957      1
    ## 14 animals 2009     1357197   153478497      1
    ## 15 music   2020     1257132.  132379942.     2
    ## 16 mrbeast 2022     1104711.   28868813.    28
    ## 17 animals 2019     1103713   106151957      1
    ## 18 cubes   2016      954935    94900199      1
    ## 19 bed     2009      887882.  223451481.     3
    ## 20 sports  2017      867074   106014469      1
    ## 21 animals 2020      769652.   48428226.     9
    ## 22 bed     2011      766414   179429906.     2
    ## 23 how-to  2013      723998    31858250      1
    ## 24 sat     2011      712273    18116954      1
    ## 25 food    2017      672749    48018833      1
    ## # … with 196 more rows
…
